{
	"info": {
		"_postman_id": "e989a28f-0642-424b-9ce7-2fe22404af96",
		"name": "Partitioner",
		"schema": "https://schema.getpostman.com/json/collection/v2.1.0/collection.json"
	},
	"item": [
		{
			"name": "GET users/1001",
			"request": {
				"method": "GET",
				"header": [],
				"url": {
					"raw": "http://localhost:3000/api-peru/v1/users/1",
					"protocol": "http",
					"host": [
						"localhost"
					],
					"port": "3000",
					"path": [
						"api-peru",
						"v1",
						"users",
						"1"
					]
				}
			},
			"response": []
		},
		{
			"name": "Crear users",
			"request": {
				"method": "POST",
				"header": [],
				"body": {
					"mode": "raw",
					"raw": "{\n\t\"first_name\":\"Jimy\",\n\t\"last_name\":\"Ccatamayo\",\n\t\"email\":\"jimckes@infoseek.co.jp\",\n\t\"password\":\"password\"\n}",
					"options": {
						"raw": {
							"language": "json"
						}
					}
				},
				"url": {
					"raw": "http://localhost:3000/api-peru/v1/users",
					"protocol": "http",
					"host": [
						"localhost"
					],
					"port": "3000",
					"path": [
						"api-peru",
						"v1",
						"users"
					]
				}
			},
			"response": []
		},
		{
			"name": "Obtener usersTotal",
			"request": {
				"method": "GET",
				"header": [],
				"url": {
					"raw": "http://localhost:3000/api-peru/v1/usersTotal",
					"protocol": "http",
					"host": [
						"localhost"
					],
					"port": "3000",
					"path": [
						"api-peru",
						"v1",
						"usersTotal"
					]
				}
			},
			"response": []
		},
		{
			"name": "actualizar user",
			"request": {
				"method": "PUT",
				"header": [],
				"body": {
					"mode": "raw",
					"raw": "{\n\t\"first_name\":\"Jimy\",\n\t\"last_name\":\"Ccatamayo\",\n\t\"email\":\"jimckes@infoseek.co.jp\",\n\t\"password\":\"password\"\n}",
					"options": {
						"raw": {
							"language": "json"
						}
					}
				},
				"url": {
					"raw": "http://localhost:3000/api-peru/v1/users/1",
					"protocol": "http",
					"host": [
						"localhost"
					],
					"port": "3000",
					"path": [
						"api-peru",
						"v1",
						"users",
						"1"
					]
				}
			},
			"response": []
		},
		{
			"name": "Eliminar user",
			"request": {
				"method": "DELETE",
				"header": [],
				"url": {
					"raw": "http://localhost:3000/api-peru/v1/users/1",
					"protocol": "http",
					"host": [
						"localhost"
					],
					"port": "3000",
					"path": [
						"api-peru",
						"v1",
						"users",
						"1"
					]
				}
			},
			"response": []
		},
		{
			"name": "get user",
			"request": {
				"method": "GET",
				"header": [],
				"url": {
					"raw": "http://localhost:3000/api-peru/v1/users",
					"protocol": "http",
					"host": [
						"localhost"
					],
					"port": "3000",
					"path": [
						"api-peru",
						"v1",
						"users"
					]
				}
			},
			"response": []
		},
		{
			"name": "get usersMLAB",
			"request": {
				"method": "GET",
				"header": [],
				"url": {
					"raw": "http://localhost:3000/api-peru/v1/usersMLAB",
					"protocol": "http",
					"host": [
						"localhost"
					],
					"port": "3000",
					"path": [
						"api-peru",
						"v1",
						"usersMLAB"
					]
				}
			},
			"response": []
		},
		{
			"name": "get Account",
			"request": {
				"method": "GET",
				"header": [],
				"url": {
					"raw": "http://localhost:3000/api-peru/v1/usersMLAB/1/accounts",
					"protocol": "http",
					"host": [
						"localhost"
					],
					"port": "3000",
					"path": [
						"api-peru",
						"v1",
						"usersMLAB",
						"1",
						"accounts"
					]
				}
			},
			"response": []
		},
		{
			"name": "getUser MLab",
			"request": {
				"method": "GET",
				"header": [],
				"url": {
					"raw": "http://localhost:3000/api-peru/v1/usersMLAB/1",
					"protocol": "http",
					"host": [
						"localhost"
					],
					"port": "3000",
					"path": [
						"api-peru",
						"v1",
						"usersMLAB",
						"1"
					]
				}
			},
			"response": []
		},
		{
			"name": "getMovement",
			"request": {
				"method": "GET",
				"header": [],
				"url": {
					"raw": "http://localhost:3000/api-peru/v1/usersMLAB/account/1/movement",
					"protocol": "http",
					"host": [
						"localhost"
					],
					"port": "3000",
					"path": [
						"api-peru",
						"v1",
						"usersMLAB",
						"account",
						"1",
						"movement"
					]
				}
			},
			"response": []
		},
		{
			"name": "Login MBLAB",
			"request": {
				"method": "POST",
				"header": [],
				"body": {
					"mode": "raw",
					"raw": "{\n    \"email\" : \"jimy.ccatamayo@bbva.com\",\n    \"password\" : \"bwUN3Lk92QM\"\n}",
					"options": {
						"raw": {
							"language": "json"
						}
					}
				},
				"url": {
					"raw": "http://localhost:3000/api-peru/v1/usersMLAB/login",
					"protocol": "http",
					"host": [
						"localhost"
					],
					"port": "3000",
					"path": [
						"api-peru",
						"v1",
						"usersMLAB",
						"login"
					]
				}
			},
			"response": []
		},
		{
			"name": "Logout MBLAB",
			"request": {
				"method": "POST",
				"header": [],
				"body": {
					"mode": "raw",
					"raw": "{\n    \"email\": \"jimy.ccatamayo@bbva.com\"\n}",
					"options": {
						"raw": {
							"language": "json"
						}
					}
				},
				"url": {
					"raw": "http://localhost:3000/api-peru/v1/usersMLAB/logout",
					"protocol": "http",
					"host": [
						"localhost"
					],
					"port": "3000",
					"path": [
						"api-peru",
						"v1",
						"usersMLAB",
						"logout"
					]
				}
			},
			"response": []
		}
	],
	"protocolProfileBehavior": {}
}